{
    "defaultSeverity": "error",
    "extends": [
        "tslint:recommended"
    ],
    "jsRules": {},
    "rules": {
        "interface-name": [false],
        "no-console": [false],
        "quotemark": [true, "single"],
        "ordered-imports": false,
        "member-ordering": false,
    },
    "rulesDirectory": []
}
